jQuery21403750129072197055_1551720193625({"success":true,"code":"1000","message":"요청을 성공적으로 처리하였습니다.","lang":"ko","country":"KR","result":{"commentList":[{"ticket":"news","objectId":"news011,0003513679","categoryId":"*","templateId":"default_politics_m2","commentNo":1663413494,"parentCommentNo":1663413494,"replyLevel":1,"replyCount":58,"replyAllCount":58,"replyPreviewNo":null,"replyList":null,"imageCount":0,"imageList":null,"imagePathList":null,"imageWidthList":null,"imageHeightList":null,"commentType":"txt","stickerId":"","sticker":null,"sortValue":1551476158403,"contents":"","userIdNo":"","exposedUserIp":null,"lang":"ko","country":"KR","idType":"naver","idProvider":"naver","userName":"ghos****","userProfileImage":"","profileType":"naver","modTime":"2019-03-02T09:21:44+0900","modTimeGmt":"2019-03-02T00:21:44+0000","regTime":"2019-03-02T06:35:58+0900","regTimeGmt":"2019-03-01T21:35:58+0000","sympathyCount":0,"antipathyCount":0,"userBlind":false,"hideReplyButton":false,"status":1,"mine":false,"best":false,"mentions":null,"toUser":null,"userStatus":null,"categoryImage":null,"open":false,"levelCode":null,"grades":null,"sympathy":false,"antipathy":false,"snsList":null,"metaInfo":null,"extension":null,"audioInfoList":null,"translation":null,"report":null,"middleBlindReport":false,"spamInfo":null,"userHomepageUrl":null,"defamation":false,"visible":false,"serviceId":null,"deleted":true,"manager":false,"anonymous":false,"blindReport":false,"secret":false,"expose":true,"blind":false,"profileUserId":null,"exposeByCountry":false,"virtual":false,"containText":true,"maskedUserId":"ghos****","maskedUserName":"gh****","validateBanWords":false},{"ticket":"news","objectId":"news011,0003513679","categoryId":"*","templateId":"view_politics_m2","commentNo":1663413544,"parentCommentNo":1663413544,"replyLevel":1,"replyCount":43,"replyAllCount":43,"replyPreviewNo":null,"replyList":null,"imageCount":0,"imageList":null,"imagePathList":null,"imageWidthList":null,"imageHeightList":null,"commentType":"txt","stickerId":null,"sticker":null,"sortValue":1551476167230,"contents":"아이들을 볼모로 한유총 뭐하는 짓들인지.. 이기적인 집단","userIdNo":"","exposedUserIp":null,"lang":"ko","country":"KR","idType":"naver","idProvider":"naver","userName":"sodk****","userProfileImage":"https://profile-phinf.pstatic.net/12834/13204fd63c67a96a2555218f750a0a18d31c3e6fb84a6fa26629109786676e76.jpg","profileType":"naver","modTime":"2019-03-02T06:36:07+0900","modTimeGmt":"2019-03-01T21:36:07+0000","regTime":"2019-03-02T06:36:07+0900","regTimeGmt":"2019-03-01T21:36:07+0000","sympathyCount":1356,"antipathyCount":404,"userBlind":false,"hideReplyButton":false,"status":0,"mine":false,"best":false,"mentions":null,"toUser":null,"userStatus":0,"categoryImage":null,"open":false,"levelCode":null,"grades":null,"sympathy":false,"antipathy":false,"snsList":null,"metaInfo":null,"extension":null,"audioInfoList":null,"translation":null,"report":null,"middleBlindReport":false,"spamInfo":null,"userHomepageUrl":null,"defamation":false,"visible":true,"serviceId":null,"deleted":false,"manager":false,"anonymous":false,"blindReport":false,"secret":false,"expose":true,"blind":false,"profileUserId":null,"exposeByCountry":false,"virtual":false,"containText":true,"maskedUserId":"sodk****","maskedUserName":"so****","validateBanWords":false},{"ticket":"news","objectId":"news011,0003513679","categoryId":"*","templateId":"view_politics_m2","commentNo":1663415324,"parentCommentNo":1663415324,"replyLevel":1,"replyCount":28,"replyAllCount":28,"replyPreviewNo":null,"replyList":null,"imageCount":0,"imageList":null,"imagePathList":null,"imageWidthList":null,"imageHeightList":null,"commentType":"txt","stickerId":null,"sticker":null,"sortValue":1551476444807,"contents":"비리를  하고도 애들 볼모 삼아 또 그짓거리 할려는  저 사람들 인간이 아닌듯하다  강력 처벌 하길 바랍니다","userIdNo":"","exposedUserIp":null,"lang":"ko","country":"KR","idType":"naver","idProvider":"naver","userName":"2388****","userProfileImage":"https://profile-phinf.pstatic.net/48650/5c7e9bdbb59298949f090de92d88aa2644d7db23491792d74af91ce204f09fd0.jpg","profileType":"naver","modTime":"2019-03-02T06:40:44+0900","modTimeGmt":"2019-03-01T21:40:44+0000","regTime":"2019-03-02T06:40:44+0900","regTimeGmt":"2019-03-01T21:40:44+0000","sympathyCount":1081,"antipathyCount":232,"userBlind":false,"hideReplyButton":false,"status":0,"mine":false,"best":false,"mentions":null,"toUser":null,"userStatus":0,"categoryImage":null,"open":false,"levelCode":null,"grades":null,"sympathy":false,"antipathy":false,"snsList":null,"metaInfo":null,"extension":null,"audioInfoList":null,"translation":null,"report":null,"middleBlindReport":false,"spamInfo":null,"userHomepageUrl":null,"defamation":false,"visible":true,"serviceId":null,"deleted":false,"manager":false,"anonymous":false,"blindReport":false,"secret":false,"expose":true,"blind":false,"profileUserId":null,"exposeByCountry":false,"virtual":false,"containText":true,"maskedUserId":"2388****","maskedUserName":"23****","validateBanWords":false},{"ticket":"news","objectId":"news011,0003513679","categoryId":"*","templateId":"view_politics_m2","commentNo":1663416884,"parentCommentNo":1663416884,"replyLevel":1,"replyCount":48,"replyAllCount":48,"replyPreviewNo":null,"replyList":null,"imageCount":0,"imageList":null,"imagePathList":null,"imageWidthList":null,"imageHeightList":null,"commentType":"txt","stickerId":null,"sticker":null,"sortValue":1551476717390,"contents":"국가보조금  똑바로 운영해라~ 국공립유치원만 보조금주고 사립유치원은 주지마라!! 부모들이 사립유치원 보내고 싶으면 원비가 비싸든 말든 알아서 하라고 해~!!  국가보조금이라는 명목하에 사립유치원까지 지급하니까 이 모양이지~ 그리고 사립유치원 원장이 수익금으로 술을먹든 명품을사든 땅을사든 사유재산에 왈가왈부 하지마라~  이게 사회주의국가지 자유민주주의 국가냐?","userIdNo":"","exposedUserIp":null,"lang":"ko","country":"KR","idType":"naver","idProvider":"naver","userName":"nolz****","userProfileImage":"https://profile-phinf.pstatic.net/10267/18d73196b3d8aca534df32005d0726c1c5545287eb856f5413bb5e283c5b5f41.jpg","profileType":"naver","modTime":"2019-03-02T06:45:17+0900","modTimeGmt":"2019-03-01T21:45:17+0000","regTime":"2019-03-02T06:45:17+0900","regTimeGmt":"2019-03-01T21:45:17+0000","sympathyCount":854,"antipathyCount":279,"userBlind":false,"hideReplyButton":false,"status":0,"mine":false,"best":false,"mentions":null,"toUser":null,"userStatus":0,"categoryImage":null,"open":false,"levelCode":null,"grades":null,"sympathy":false,"antipathy":false,"snsList":null,"metaInfo":null,"extension":null,"audioInfoList":null,"translation":null,"report":null,"middleBlindReport":false,"spamInfo":null,"userHomepageUrl":null,"defamation":false,"visible":true,"serviceId":null,"deleted":false,"manager":false,"anonymous":false,"blindReport":false,"secret":false,"expose":true,"blind":false,"profileUserId":null,"exposeByCountry":false,"virtual":false,"containText":true,"maskedUserId":"nolz****","maskedUserName":"no****","validateBanWords":false},{"ticket":"news","objectId":"news011,0003513679","categoryId":"*","templateId":"default_politics_m2","commentNo":1663414054,"parentCommentNo":1663414054,"replyLevel":1,"replyCount":15,"replyAllCount":15,"replyPreviewNo":null,"replyList":null,"imageCount":0,"imageList":null,"imagePathList":null,"imageWidthList":null,"imageHeightList":null,"commentType":"txt","stickerId":null,"sticker":null,"sortValue":1551476252456,"contents":"못된 장사꾼들 철저하게 응징해주세요","userIdNo":"","exposedUserIp":null,"lang":"ko","country":"KR","idType":"naver","idProvider":"naver","userName":"gwan****","userProfileImage":"https://profile-phinf.pstatic.net/25723/c8711e24a694d08fdc25f614e3c581c97fe19a0a6914fd79394c191d802a9e7e.jpg","profileType":"naver","modTime":"2019-03-02T06:37:32+0900","modTimeGmt":"2019-03-01T21:37:32+0000","regTime":"2019-03-02T06:37:32+0900","regTimeGmt":"2019-03-01T21:37:32+0000","sympathyCount":597,"antipathyCount":166,"userBlind":false,"hideReplyButton":false,"status":0,"mine":false,"best":false,"mentions":null,"toUser":null,"userStatus":0,"categoryImage":null,"open":false,"levelCode":null,"grades":null,"sympathy":false,"antipathy":false,"snsList":null,"metaInfo":null,"extension":null,"audioInfoList":null,"translation":null,"report":null,"middleBlindReport":false,"spamInfo":null,"userHomepageUrl":null,"defamation":false,"visible":true,"serviceId":null,"deleted":false,"manager":false,"anonymous":false,"blindReport":false,"secret":false,"expose":true,"blind":false,"profileUserId":null,"exposeByCountry":false,"virtual":false,"containText":true,"maskedUserId":"gwan****","maskedUserName":"gw****","validateBanWords":false}],"userInfo":{},"pageModel":{"page":1,"pageSize":5,"indexSize":10,"startRow":1,"endRow":5,"totalRows":1998,"startIndex":0,"totalPages":400,"firstPage":1,"prevPage":0,"nextPage":2,"lastPage":10,"current":null,"threshold":null,"moveToLastPage":false,"moveToComment":false,"moveToLastPrev":false},"exposureConfig":{"reason":null,"status":"COMMENT_ON"},"count":{"comment":1998,"reply":1139,"exposeCount":1715,"delCommentByUser":364,"delCommentByMon":4,"blindCommentByUser":0,"blindReplyByUser":0,"total":3137},"listStatus":"all","sort":"FAVORITE","config":{"useSnsLogin":true,"lineFeedOn":false,"useBest":false,"useVote":true,"useVoteSelf":false,"useVoteGoodOnly":false,"useReport":true,"useCommonReport":false,"reportAuthority":"ALL","useDeleteOnManagerReport":false,"useReportSecret":false,"useSort":true,"sortTypes":["FAVORITE","NEW","RELATIVE"],"defaultSort":"FAVORITE","useByteLength":false,"useReply":true,"useReplyOnReply":false,"pageAfterReply":"TO_LAST_PAGE","maxReplyWriteBoxCount":0,"useAutoRefresh":false,"useMention":false,"min":1,"max":300,"useSticker":false,"stickerOnly":false,"stickerSupportedCategories":null,"stickerDefaultCategory":null,"stickerCategory":null,"stickerContentsUrl":null,"stickerKeyUrl":null,"stickerTabUrl":null,"stickerType":null,"stickerText":false,"stickerMarketUrl":null,"stickerMobileResize":false,"useProfile":false,"dynamicProfile":false,"profileImageAreas":["LIST"],"profileEmptyImage":null,"displayMaskedUserId":false,"useManager":false,"managerDelete":false,"managerBlock":false,"managerNotice":false,"contentsManagerIcon":false,"secretComment":false,"exposureConfig":false,"deleteAllAfterBlock":false,"useFold":true,"replyPreviewCount":0,"maxImageUploadCount":0,"maxImageUploadFileSize":0,"imageAutoRotate":false,"autoRefreshTime":0,"autoRefreshDefaultOff":false,"autoRefreshChat":false,"maxChatFPS":0,"commentModify":false,"useCommentModify":false,"useViewAll":true,"useSnsComment":true,"snsCommentDefaultOn":true,"useUserLevel":false,"useUserBlind":false,"maxUserBlindCount":0,"anyUseImageExpose":true,"useImageComment":false,"useUrlLink":false,"useCommentListIncludeDelete":false,"useStats":true,"statsMinCount":100,"useUserEnvStats":true,"countryStatsMinCount":1,"useConcurrentStats":false,"useVoteStats":false,"useGpopCache":false,"useEnterSubmit":false,"useListReverse":false,"useTranslation":false,"useDeletedList":true,"useAudio":false,"combinedDeletedList":true,"displayDeletedList":true,"applyChangedNotice":false,"useUserCommentUi":true,"userSortTypes":["FAVORITE","NEW","OLD","REPLY"],"useMentionLegacyFormat":false,"useMentionWrite":false,"mentionMaxCount":0,"useSecret":false,"useIdPenaltyLayer":true,"photoInfraUploadDomain":null,"photoInfraSelectDomainHttp":"g-cbox.dv.phinf.net","photoInfraSelectDomainHttps":"g-cbox.pstatic.net","pcTempThumbnailType":"ff80_80","mobileTempThumbnailType":"ff50_50","realnameVerificationBlock":false,"realnameVerificationMessage":null,"useBlindByReport":true,"keepTextareaOnRestriction":null,"displayIndividualBlindOnly":true,"hashtagMaxLength":20,"useDualPagination":false,"blindReportReasonList":[{"reasonCode":"AA03","reportReasonTitle":"부적절한 홍보 게시물","reportReasonDetails":["불법 사행성, 도박사이트를 홍보하는 경우","개인정보, 이미테이션, 성인의약품, 마약, 대포폰 등 불법 제품 및 정보를 홍보, 판매하는 경우","성매매, 장기매매 등의 신체 관련 거래 정보"]},{"reasonCode":"AA33","reportReasonTitle":"음란성 또는 청소년에게 부적합한 내용","reportReasonDetails":["음란물 또는 음란한 행위(노골적인 성행위 장면)를 묘사하는 이미지/동영상","살해, 상해, 폭력 등 잔인한 장면을 묘사하는 이미지/동영상","중고 속옷 판매, 가출 유도 등의 청소년 유해 정보 공유"]},{"reasonCode":"AA01","reportReasonTitle":"특정인 대상의 비방/욕설","reportReasonDetails":["특정인의 신체, 외모, 취향 등을 경멸의 의미로 비하하고 모욕하는 경우","특정인, 계층, 지역, 국민, 종교를 근거 없이 비하하는 경우","특정인의 죽음을 비아냥거리거나 비하하는 경우"]}]},"bestList":[],"graph":{"gender":{"male":76,"female":24},"old":[{"age":"10","value":0,"type":"exact","min":true,"max":false},{"age":"20","value":2,"type":"exact","min":false,"max":false},{"age":"30","value":21,"type":"exact","min":false,"max":false},{"age":"40","value":33,"type":"exact","min":false,"max":true},{"age":"50","value":29,"type":"exact","min":false,"max":false},{"age":"60","value":15,"type":"over","min":false,"max":false}],"client":null,"country":null,"empty":false},"notice":{"noticeNo":29,"title":"댓글 언론사별 선택제 시행 안내","content":"안녕하세요, 네이버 뉴스입니다. \r<br>​ \r<br>네이버 뉴스에서 모든 기사에 일괄 적용되는 댓글 서비스 방식이 달라집니다. \r<br>오는 10월 22일부터 언론사가 각 해당 매체 기사의 댓글 제공 방식을 직접 선택할 수 있도록 변경됩니다. \r<br>​ \r<br>언론사는 자사 기사에 '댓글 제공여부', '기사본문 하단 댓글 노출여부', '댓글 정렬방식'에 대하여 섹션별로 선택할 수 있습니다. \r<br>댓글 제공 방식을 변경할 경우 댓글 서비스 관련 내용이 표기됩니다. \r<br>\r<br>* 이번 변경은 뉴스 서비스 기사 댓글에 한하여 적용하며, 연예/스포츠 등 타 서비스 기사에는 적용되지 않습니다. \r<br>** 댓글 제공 방식을 변경한 언론사 기사에만 표기되는 화면으로, 선택하지 않은 매체 기사는 기존과 동일하게 서비스 됩니다.\r<br>***이용자가 선택한 정렬방식을 항상 우선하여 제공합니다. (쿠키값 저장)\r<br>\r<br>새롭게 달라진 네이버 모바일 메인 뉴스에서는 언론사가 직접 편집한 뉴스 중심으로 변경됩니다. \r<br>언론사별 특징이 더욱 강조되는 만큼 댓글 제공 서비스 역시 언론사에 따라 달라질 수 있습니다. \r<br>​ \r<br>뉴스 댓글이 건강한 소통 공간이 될 수 있도록 지속적으로 보완해 가겠습니다. \r<br>​ \r<br>감사합니다.","regTime":"2018-10-22T16:06:41+0900"}},"date":"2019-03-04T17:23:14+0000"});